stat440-fa21-final-exam-yulins2.knit
…
#13 According to the FBI Uniform Crime Reporting Data Program, the data presented in Crime in the United States reflect the Hierarchy Rule, which requires that only the most serious offense in a multiple-offense criminal incident be counted. The descending order of UCR violent crimes are murder and non-negligent manslaughter, rape, robbery, and aggravated assault, followed by the property crimes of burglary, larceny-theft, and motor vehicle theft. Use this information to arrange the resulting data in Problem 12 following the Hierarchy Rule and print the first 25 rows. The violent crime rate per 100K and property crime rate per 100K columns should not be included in the result.

crime_1 %>% select(-c(Violent_crime_ratePer100K, Property_crime_ratePer100K)) %>% head(25)

## # A tibble: 25 x 9
##    `Metropolitan Statistical Area` Population Murder_ratePer10~ Rape_ratePer100K
##    <chr>                                <dbl>             <dbl>            <dbl>
##  1 ""                                  171125               3.5             61.4
##  2 ""                                  703784               4.7             45.2
##  3 ""                                  149257               8               44.2
##  4 ""                                  128105               4.7             27.3
##  5 ""                                  879862               1.6             39.8
##  6 ""                                  918114              10.1             64  
##  7 ""                                  152025              10.5             46.7
##  8 ""                                  121762               0.8             91.2
##  9 ""                                  266054               6               72.9
## 10 ""                                  124947               1.6             51.2
## # ... with 15 more rows, and 5 more variables: Robbery_ratePer100K <dbl>,
## #   Aggravated_assault_ratePer100K <dbl>, Burglary_ratePer100K <dbl>,
## #   Larceny_theft_ratePer100K <dbl>, Motor_vehicle_theft_ratePer100K <dbl>
…
crime_2 <- crime_2 %>% rename(
  Violent_crime_ratePer100K = `Violent\ncrime`,
         Murder_ratePer100K = `Murder and\nnonnegligent\nmanslaughter`,
           Rape_ratePer100K = `Rape1`,
        Robbery_ratePer100K = `Robbery`,
Aggravated_assault_ratePer100K = `Aggravated\nassault`,
 Property_crime_ratePer100K = `Property\ncrime`,
       Burglary_ratePer100K = `Burglary`,
  Larceny_theft_ratePer100K = `Larceny-\ntheft`,
Motor_vehicle_theft_ratePer100K = `Motor\nvehicle\ntheft`)

head(crime_2, 25)

## # A tibble: 25 x 11
##    `Metropolitan Statistical Area`    Population Violent_crime_r~ Murder_ratePer1~
##    <chr>                                   <dbl>            <dbl>            <dbl>
##  1 Abilene, TX M.S.A.                     171125             317.            3.51 
##  2 Akron, OH M.S.A.2                      703784             361.            4.69 
##  3 Albany, GA M.S.A.3                     149257             708.            8.04 
##  4 Albany-Lebanon, OR M.S.A.              128105             137.            4.68 
##  5 Albany-Schenectady-Troy, NY M.S.A.     879862             258.            1.59 
##  6 Albuquerque, NM M.S.A.4                918114             981.            9.91 
##  7 Alexandria, LA M.S.A.                  152025             771.            9.21 
##  8 Altoona, PA M.S.A.                     121762             333.            0.821
##  9 Amarillo, TX M.S.A.                    266054             595.            6.01 
## 10 Ames, IA M.S.A.                        124947             199.            1.60 
## # ... with 15 more rows, and 7 more variables: Rape_ratePer100K <dbl>,
## #   Robbery_ratePer100K <dbl>, Aggravated_assault_ratePer100K <dbl>,
## #   Property_crime_ratePer100K <dbl>, Burglary_ratePer100K <dbl>,
## #   Larceny_theft_ratePer100K <dbl>, Motor_vehicle_theft_ratePer100K <dbl>
…
crime_3 <- crime_3 %>% rename(
Percent_of_total_area_actually_reporting = `X3`,
  Violent_crime_ratePer100K = `X4`,
         Murder_ratePer100K = `X5`,
           Rape_ratePer100K = `X6`,
        Robbery_ratePer100K = `X7`,
Aggravated_assault_ratePer100K = `X8`,
 Property_crime_ratePer100K = `X9`,
       Burglary_ratePer100K = `X10`,
  Larceny_theft_ratePer100K = `X11`,
Motor_vehicle_theft_ratePer100K = `X12`)

head(crime_3, 25)

## # A tibble: 25 x 12
##    `Metropolitan Statistical Area`      Population Percent_of_tota~ Violent_crime_r~
##    <chr>                                     <dbl> <chr>                       <dbl>
##  1 Abilene, TX M.S.A.                       171125 100.0%                       317.
##  2 Albany-Lebanon, OR M.S.A.                128105 100.0%                       137.
##  3 Albany-Schenectady-Troy, NY M.S.A.       879862 100.0%                       258.
##  4 Altoona, PA M.S.A.                       121762 100.0%                       333.
##  5 Ames, IA M.S.A.                          124947 100.0%                       199.
##  6 Anchorage, AK M.S.A.                     306136 100.0%                      1195.
##  7 Ann Arbor, MI M.S.A.                     373308 100.0%                       355.
##  8 Atlantic City-Hammonton, NJ M.S.A.       263100 100.0%                       255.
##  9 Bakersfield, CA M.S.A.                   896356 100.0%                       621.
## 10 Baltimore-Columbia-Towson, MD M.S.A.    2800231 100.0%                       699.
## # ... with 15 more rows, and 8 more variables: Murder_ratePer100K <dbl>,
## #   Rape_ratePer100K <dbl>, Robbery_ratePer100K <dbl>,
## #   Aggravated_assault_ratePer100K <dbl>, Property_crime_ratePer100K <dbl>,
## #   Burglary_ratePer100K <dbl>, Larceny_theft_ratePer100K <dbl>,
## #   Motor_vehicle_theft_ratePer100K <dbl>
…
crime_2_sum <- c(999999, sum(crime_2$Population), rep(0,9))
crime_2[is.na(crime_2)] = 0
for (i in 1:9) {
  crime_2_sum[i+2] <- sum(crime_2[i+2] * (crime_2[2] / 100000)) /
                      (crime_2_sum[[2]] / 100000)
}

crime_2 <- rbind(crime_2, crime_2_sum)

crime_2[nrow(crime_2),1] <- "Total"

tail(crime_2,25)

## # A tibble: 25 x 11
##    `Metropolitan Statistical Ar~ Population Violent_crime_rate~ Murder_ratePer1~
##    <chr>                              <dbl>               <dbl>            <dbl>
##  1 Warner Robins, GA M.S.A.3         184460                384.            1.63 
##  2 Washington-Arlington-Alexand~    6301628                  0             0    
##  3 Frederick-Gaithersburg-Rockv~    1314401                165.            1.37 
##  4 Washington-Arlington-Alexand~    4987227                  0             0    
##  5 Watertown-Fort Drum, NY M.S.~     110566                220.            0    
##  6 Wausau-Weston, WI M.S.A.3         162956                221.            0.614
##  7 Weirton-Steubenville, WV-OH ~     115836                117.            2.59 
##  8 Wenatchee, WA M.S.A.              120654                106.            1.66 
##  9 Wichita, KS M.S.A.5               638097                778.            6.11 
## 10 Wichita Falls, TX M.S.A.          150317                307.            2.66 
## # ... with 15 more rows, and 7 more variables: Rape_ratePer100K <dbl>,
## #   Robbery_ratePer100K <dbl>, Aggravated_assault_ratePer100K <dbl>,
## #   Property_crime_ratePer100K <dbl>, Burglary_ratePer100K <dbl>,
## #   Larceny_theft_ratePer100K <dbl>, Motor_vehicle_theft_ratePer100K <dbl>
…
